{
  "MetaData": {
    "Schema": {
      "ManagerName": "EntitySchemaManager",
      "UId": "b4e4fc05-0da9-4763-be50-94e1d72ec34b",
      "A2": "IgloVwContactAgeDays",
      "A5": "fddd3ccb-bfdc-4672-a929-894a66ed6936",
      "B1": [],
      "B2": [],
      "B3": [],
      "B6": "bdb55b9e-f1bc-c112-479b-2601944d3f37",
      "B8": "8.1.0.6827",
      "EG1": {
        "UId": "2cc12ff3-bd06-4a0c-bd16-36adc1aacc0a",
        "A2": "IgloEntity_7071cb0EventsProcess",
        "A5": "fddd3ccb-bfdc-4672-a929-894a66ed6936",
        "B1": [],
        "B2": [],
        "B3": [],
        "B8": "8.1.0.6827",
        "FJ1": [],
        "IJ3": false,
        "BK8": "bb4d6607-026b-4b27-b640-8f5c77c1e89d",
        "BK15": [],
        "BK37": {
          "BL1": "Terrasoft.Core.Process.ProcessSchemaParameter",
          "UId": "cdd58be7-2dba-4a5e-869b-1ad5d6d7513a",
          "A2": "NotificationCaption",
          "A3": "bb4d6607-026b-4b27-b640-8f5c77c1e89d",
          "A4": "bb4d6607-026b-4b27-b640-8f5c77c1e89d",
          "L1": "8b3f29bb-ea14-4ce5-a5c5-293a929b6ba2",
          "L8": {
            "GS1": 3,
            "GS2": "[#[PropertyValue:Caption]#]"
          }
        },
        "BK1": "FFFFFFFF",
        "BK2": "FFBBBBBB",
        "BK3": [],
        "BK5": [],
        "BK4": [],
        "BK9": [],
        "BK10": true,
        "BK34": "null",
        "Labels": [],
        "BK24": [],
        "JC1": []
      },
      "D10": true,
      "D8": "1b56b061-4e91-4974-9038-df8340e534f2",
      "D29": "null",
      "D30": "null",
      "D31": "null",
      "D3": "c05decf5-ef6c-0591-8071-3c5932472142",
      "D2": [
        {
          "UId": "78ebd52d-80cf-4d77-3667-8213f5a862ea",
          "A2": "IgloBirthDate",
          "A3": "b4e4fc05-0da9-4763-be50-94e1d72ec34b",
          "A4": "b4e4fc05-0da9-4763-be50-94e1d72ec34b",
          "A5": "fddd3ccb-bfdc-4672-a929-894a66ed6936",
          "S2": "603d4960-a1a2-45e9-b232-206a54421b01"
        },
        {
          "UId": "88358154-31e1-9892-5da1-bd2037be432c",
          "A2": "IgloAgeDays",
          "A3": "b4e4fc05-0da9-4763-be50-94e1d72ec34b",
          "A4": "b4e4fc05-0da9-4763-be50-94e1d72ec34b",
          "A5": "fddd3ccb-bfdc-4672-a929-894a66ed6936",
          "S2": "6b6b74e2-820d-490e-a017-2b73d4ccf2b0"
        },
        {
          "UId": "2633a63d-1e01-75f8-88bd-84043f390f72",
          "A2": "IgloName",
          "A3": "b4e4fc05-0da9-4763-be50-94e1d72ec34b",
          "A4": "b4e4fc05-0da9-4763-be50-94e1d72ec34b",
          "A5": "fddd3ccb-bfdc-4672-a929-894a66ed6936",
          "S2": "325a73b8-0f47-44a0-8412-7606f78003ac"
        },
        {
          "UId": "c05decf5-ef6c-0591-8071-3c5932472142",
          "A2": "IgloId",
          "A3": "b4e4fc05-0da9-4763-be50-94e1d72ec34b",
          "A4": "b4e4fc05-0da9-4763-be50-94e1d72ec34b",
          "A5": "fddd3ccb-bfdc-4672-a929-894a66ed6936",
          "S2": "23018567-a13c-4320-8687-fd6f9e3699bd"
        }
      ],
      "D6": [],
      "D20": {
        "A2": "IgloVwContactAgeDaysEvents"
      },
      "D35": {},
      "D36": {
        "A3": "b4e4fc05-0da9-4763-be50-94e1d72ec34b",
        "BS1": false
      }
    }
  }
}