{
  "MetaData": {
    "Schema": {
      "ManagerName": "ProcessSchemaManager",
      "UId": "73574c68-3234-4eef-8e97-3d407a368d5f",
      "A2": "AnwAutoAddRealtyVisitsProcess",
      "A5": "aec74294-1913-49a9-b8c2-0677ea44a975",
      "B1": [],
      "B2": [],
      "B3": [],
      "B6": "61ba2b63-4480-41d2-9dca-a5dc07183f3c",
      "B8": "8.1.0.6827",
      "FJ1": [
        {
          "BL1": "Terrasoft.Core.Process.ProcessSchemaParameter",
          "UId": "4243b3a9-bac4-4836-9924-e53b73f8553c",
          "A2": "ProcessSchemaParameter1",
          "A3": "73574c68-3234-4eef-8e97-3d407a368d5f",
          "A4": "73574c68-3234-4eef-8e97-3d407a368d5f",
          "L1": "6b6b74e2-820d-490e-a017-2b73d4ccf2b0",
          "L8": {
            "GS1": 1,
            "GS2": "1",
            "GS5": "73574c68-3234-4eef-8e97-3d407a368d5f"
          }
        }
      ],
      "IJ1": true,
      "BK8": "bb4d6607-026b-4b27-b640-8f5c77c1e89d",
      "IJ10": true,
      "BK15": [
        {
          "BL1": "Terrasoft.Core.Process.ProcessSchemaMapping",
          "UId": "ddea80c7-474d-450f-b2b0-e6fe58e6358e",
          "A2": "AddDataUserTask1",
          "A3": "73574c68-3234-4eef-8e97-3d407a368d5f",
          "A4": "73574c68-3234-4eef-8e97-3d407a368d5f",
          "GT2": "[Element:{0cc92358-3ca0-483f-bf47-34648ab3608f}].[Parameter:{b4e1946f-b627-49f6-8492-16dd95c6b1d5}]",
          "GT3": "b4e1946f-b627-49f6-8492-16dd95c6b1d5",
          "GT5": "4573b9c8-b4d4-442e-a499-682e7b31ab10",
          "GT4": "db6abed1-0c5f-455b-8053-2665378cdb71",
          "GT1": {
            "GS1": 1,
            "GS2": "db8cb312-27a2-4e22-9663-135d3fcf4bd0"
          }
        },
        {
          "BL1": "Terrasoft.Core.Process.ProcessSchemaMapping",
          "UId": "38f40a2f-b173-4235-a01f-8552aa3a6b56",
          "A2": "AddDataUserTask1",
          "A3": "73574c68-3234-4eef-8e97-3d407a368d5f",
          "A4": "73574c68-3234-4eef-8e97-3d407a368d5f",
          "GT2": "[Element:{0cc92358-3ca0-483f-bf47-34648ab3608f}].[Parameter:{88c8304c-b894-4a01-b980-8a5424956910}]",
          "GT3": "88c8304c-b894-4a01-b980-8a5424956910",
          "GT5": "24151caf-0cf3-48bb-862c-ba9a0ddc4b29",
          "GT4": "db6abed1-0c5f-455b-8053-2665378cdb71",
          "GT1": {}
        },
        {
          "BL1": "Terrasoft.Core.Process.ProcessSchemaMapping",
          "UId": "2fb41e99-e1c1-4668-ad35-46fe25b7244d",
          "A2": "AddDataUserTask1",
          "A3": "73574c68-3234-4eef-8e97-3d407a368d5f",
          "A4": "73574c68-3234-4eef-8e97-3d407a368d5f",
          "GT2": "[Element:{0cc92358-3ca0-483f-bf47-34648ab3608f}].[Parameter:{5e7193c1-77b9-42c4-bdfe-bcaf021c5e42}]",
          "GT3": "5e7193c1-77b9-42c4-bdfe-bcaf021c5e42",
          "GT5": "06ad8e3f-90fc-4aa2-922d-3fa9c386f7fc",
          "GT4": "db6abed1-0c5f-455b-8053-2665378cdb71",
          "GT1": {
            "GS1": 1,
            "GS2": "0"
          }
        },
        {
          "BL1": "Terrasoft.Core.Process.ProcessSchemaMapping",
          "UId": "52f38067-e1bf-49ab-9ee1-310f5078138d",
          "A2": "AddDataUserTask1",
          "A3": "73574c68-3234-4eef-8e97-3d407a368d5f",
          "A4": "73574c68-3234-4eef-8e97-3d407a368d5f",
          "GT2": "[Element:{0cc92358-3ca0-483f-bf47-34648ab3608f}].[Parameter:{fc7f6c34-3e7a-412e-b832-381cde254add}]",
          "GT3": "fc7f6c34-3e7a-412e-b832-381cde254add",
          "GT5": "cb4a4921-dd8e-4b41-b4f9-539408697296",
          "GT4": "db6abed1-0c5f-455b-8053-2665378cdb71",
          "GT1": {}
        },
        {
          "BL1": "Terrasoft.Core.Process.ProcessSchemaMapping",
          "UId": "3abbb72f-70b2-41c3-a424-b6c01beaf0f6",
          "A2": "AddDataUserTask1",
          "A3": "73574c68-3234-4eef-8e97-3d407a368d5f",
          "A4": "73574c68-3234-4eef-8e97-3d407a368d5f",
          "GT2": "[Element:{0cc92358-3ca0-483f-bf47-34648ab3608f}].[Parameter:{5620ff37-6a34-4600-83ed-92f35f6f1b5a}]",
          "GT3": "5620ff37-6a34-4600-83ed-92f35f6f1b5a",
          "GT5": "f1b0cf15-8edd-4df1-948f-7dd046622d22",
          "GT4": "db6abed1-0c5f-455b-8053-2665378cdb71",
          "GT1": {
            "GS1": 1,
            "GS2": "{\"$type\":\"Terrasoft.Core.Process.LocalizableParameterValuesList, Terrasoft.Core\",\"$values\":[{\"ItemUId\":\"51212b3f-d68c-471a-866d-414c8fbae442\",\"columnMetaPath\":{\"value\":\"59c7d592-5d1f-cc3c-0133-3cde8f610713\"},\"schemaUId\":{\"value\":\"db8cb312-27a2-4e22-9663-135d3fcf4bd0\"},\"value\":{\"isLczValue\":true,\"value\":\"Auto added visit\"},\"displayValue\":{\"isLczValue\":true,\"value\":\"Auto added visit\"},\"parameterValue\":{\"value\":\"{\\\"$type\\\":\\\"Terrasoft.Core.Process.ProcessSchemaParameterValue, Terrasoft.Core\\\",\\\"Source\\\":1,\\\"DisplayValue\\\":\\\"\\\",\\\"Value\\\":\\\"\\\",\\\"MetaPath\\\":null,\\\"MetaDataValue\\\":null,\\\"ModifiedInSchemaUId\\\":\\\"00000000-0000-0000-0000-000000000000\\\",\\\"SchemaUId\\\":\\\"00000000-0000-0000-0000-000000000000\\\",\\\"SchemaManagerName\\\":\\\"\\\",\\\"DataValueTypeUId\\\":\\\"325a73b8-0f47-44a0-8412-7606f78003ac\\\",\\\"ReferenceSchemaUId\\\":\\\"00000000-0000-0000-0000-000000000000\\\",\\\"ResourceItemName\\\":null}\"}},{\"ItemUId\":\"981d9dd0-f913-48d1-aa91-8c9dfcd2efb6\",\"columnMetaPath\":{\"value\":\"a03e35d5-6e7f-b558-a870-a313695b9c0f\"},\"schemaUId\":{\"value\":\"db8cb312-27a2-4e22-9663-135d3fcf4bd0\"},\"value\":{\"value\":\"[#[IsOwnerSchema:false].[IsSchema:false].[Element:{d2aae7d1-dde0-41b9-8cd3-ce98f4810efb}].[Parameter:{8b1fa4f7-0475-4d9f-8fba-fd3f0d9faf87}]#]\"},\"displayValue\":{\"value\":\"[#Realty created.Unique identifier of record#]\"},\"parameterValue\":{\"value\":\"{\\\"$type\\\":\\\"Terrasoft.Core.Process.ProcessSchemaParameterValue, Terrasoft.Core\\\",\\\"Source\\\":3,\\\"DisplayValue\\\":\\\"\\\",\\\"Value\\\":\\\"\\\",\\\"MetaPath\\\":null,\\\"MetaDataValue\\\":null,\\\"ModifiedInSchemaUId\\\":\\\"00000000-0000-0000-0000-000000000000\\\",\\\"SchemaUId\\\":\\\"00000000-0000-0000-0000-000000000000\\\",\\\"SchemaManagerName\\\":\\\"\\\",\\\"DataValueTypeUId\\\":\\\"b295071f-7ea9-4e62-8d1a-919bf3732ff2\\\",\\\"ReferenceSchemaUId\\\":\\\"1e12dfee-851f-44c3-8782-fc765b9843d1\\\",\\\"ResourceItemName\\\":null}\"}},{\"ItemUId\":\"2c64d207-1974-4f00-a9b2-7df752646613\",\"columnMetaPath\":{\"value\":\"8d17f77c-d675-c85c-985d-0e0475cecb0e\"},\"schemaUId\":{\"value\":\"db8cb312-27a2-4e22-9663-135d3fcf4bd0\"},\"value\":{\"value\":\"[#SysVariable.CurrentDateTime#].AddDays([#[IsOwnerSchema:false].[IsSchema:false].[Parameter:{4243b3a9-bac4-4836-9924-e53b73f8553c}]#])\"},\"displayValue\":{\"value\":\"[#System variable.Current Time and Date#].AddDays([#N#])\"},\"parameterValue\":{\"value\":\"{\\\"$type\\\":\\\"Terrasoft.Core.Process.ProcessSchemaParameterValue, Terrasoft.Core\\\",\\\"Source\\\":3,\\\"DisplayValue\\\":\\\"\\\",\\\"Value\\\":\\\"\\\",\\\"MetaPath\\\":null,\\\"MetaDataValue\\\":null,\\\"ModifiedInSchemaUId\\\":\\\"00000000-0000-0000-0000-000000000000\\\",\\\"SchemaUId\\\":\\\"00000000-0000-0000-0000-000000000000\\\",\\\"SchemaManagerName\\\":\\\"\\\",\\\"DataValueTypeUId\\\":\\\"d21e9ef4-c064-4012-b286-fa1a8171da44\\\",\\\"ReferenceSchemaUId\\\":\\\"00000000-0000-0000-0000-000000000000\\\",\\\"ResourceItemName\\\":null}\"}}]}",
            "GS5": "73574c68-3234-4eef-8e97-3d407a368d5f"
          }
        },
        {
          "BL1": "Terrasoft.Core.Process.ProcessSchemaMapping",
          "UId": "fb6c6980-c0ca-4ccc-a87f-624d597d9314",
          "A2": "AddDataUserTask1",
          "A3": "73574c68-3234-4eef-8e97-3d407a368d5f",
          "A4": "73574c68-3234-4eef-8e97-3d407a368d5f",
          "GT2": "[Element:{0cc92358-3ca0-483f-bf47-34648ab3608f}].[Parameter:{a9ebce53-e564-48a3-9872-032f8325cdf1}]",
          "GT3": "a9ebce53-e564-48a3-9872-032f8325cdf1",
          "GT5": "01b58ce0-aa7f-40c5-a5c6-b4ddffb5d0c7",
          "GT4": "db6abed1-0c5f-455b-8053-2665378cdb71",
          "GT1": {}
        },
        {
          "BL1": "Terrasoft.Core.Process.ProcessSchemaMapping",
          "UId": "49e11071-663c-4888-abfc-23d452fcbc4a",
          "A2": "AddDataUserTask1",
          "A3": "73574c68-3234-4eef-8e97-3d407a368d5f",
          "A4": "73574c68-3234-4eef-8e97-3d407a368d5f",
          "GT2": "[Element:{0cc92358-3ca0-483f-bf47-34648ab3608f}].[Parameter:{e59f2a62-bae8-4ed6-8b4b-4e819a40d114}]",
          "GT3": "e59f2a62-bae8-4ed6-8b4b-4e819a40d114",
          "GT5": "01eaeba6-132f-7d0d-4ecc-67b990f6bd5a",
          "GT4": "db6abed1-0c5f-455b-8053-2665378cdb71",
          "GT1": {
            "GS1": 3,
            "GS2": "true",
            "GS5": "db6abed1-0c5f-455b-8053-2665378cdb71",
            "GS8": "false"
          }
        }
      ],
      "BK37": {
        "BL1": "Terrasoft.Core.Process.ProcessSchemaParameter",
        "UId": "cdd58be7-2dba-4a5e-869b-1ad5d6d7513a",
        "A2": "NotificationCaption",
        "A3": "73574c68-3234-4eef-8e97-3d407a368d5f",
        "A4": "73574c68-3234-4eef-8e97-3d407a368d5f",
        "L1": "8b3f29bb-ea14-4ce5-a5c5-293a929b6ba2",
        "L8": {
          "GS1": 3,
          "GS2": "[#[PropertyValue:Caption]#]"
        }
      },
      "BK1": "FFFFFFFF",
      "BK2": "FFBBBBBB",
      "BK3": [
        {
          "BL1": "Terrasoft.Core.Process.ProcessSchemaLaneSet",
          "UId": "db2b3020-9313-48dc-8697-cdbb06a9c8ab",
          "A2": "LaneSet1",
          "A3": "73574c68-3234-4eef-8e97-3d407a368d5f",
          "A4": "73574c68-3234-4eef-8e97-3d407a368d5f",
          "A5": "61ba2b63-4480-41d2-9dca-a5dc07183f3c",
          "BL7": "11a47caf-a0d5-41fa-a274-a0b11f77447a",
          "BL8": "73574c68-3234-4eef-8e97-3d407a368d5f",
          "BM1": 0,
          "BM4": [
            {
              "BL1": "Terrasoft.Core.Process.ProcessSchemaLane",
              "UId": "2f694e6b-1524-4d78-b073-d919c3b6837d",
              "A2": "Lane1",
              "A3": "73574c68-3234-4eef-8e97-3d407a368d5f",
              "A4": "73574c68-3234-4eef-8e97-3d407a368d5f",
              "A5": "61ba2b63-4480-41d2-9dca-a5dc07183f3c",
              "IL2": "db2b3020-9313-48dc-8697-cdbb06a9c8ab",
              "BL7": "abcd74b9-5912-414b-82ac-f1aa4dcd554e",
              "BL8": "73574c68-3234-4eef-8e97-3d407a368d5f",
              "CD1": [],
              "CD2": [],
              "CD4": "db2b3020-9313-48dc-8697-cdbb06a9c8ab",
              "CD7": []
            }
          ]
        }
      ],
      "BK5": [],
      "BK4": [
        {
          "BL1": "Terrasoft.Core.Process.ProcessSchemaTerminateEvent",
          "UId": "c68f23de-25f7-4f83-9767-80baa91b9496",
          "A2": "TerminateEvent1",
          "A3": "73574c68-3234-4eef-8e97-3d407a368d5f",
          "A4": "73574c68-3234-4eef-8e97-3d407a368d5f",
          "A5": "61ba2b63-4480-41d2-9dca-a5dc07183f3c",
          "IL2": "2f694e6b-1524-4d78-b073-d919c3b6837d",
          "BL3": "600;184",
          "BL7": "1bd93619-0574-454e-bb4e-cf53b9eb9470",
          "BL8": "73574c68-3234-4eef-8e97-3d407a368d5f",
          "BN2": "31;31",
          "BO3": true,
          "FC1": []
        },
        {
          "BL1": "Terrasoft.Core.Process.ProcessSchemaStartSignalEvent",
          "UId": "d2aae7d1-dde0-41b9-8cd3-ce98f4810efb",
          "A2": "StartSignal1",
          "A3": "73574c68-3234-4eef-8e97-3d407a368d5f",
          "A4": "73574c68-3234-4eef-8e97-3d407a368d5f",
          "A5": "61ba2b63-4480-41d2-9dca-a5dc07183f3c",
          "IL2": "2f694e6b-1524-4d78-b073-d919c3b6837d",
          "IL3": true,
          "BL3": "50;184",
          "BL7": "1129e72f-0e8c-445a-b2ea-463517e86395",
          "BL8": "73574c68-3234-4eef-8e97-3d407a368d5f",
          "BN2": "31;31",
          "BO3": true,
          "FC1": [
            {
              "BL1": "Terrasoft.Core.Process.ProcessSchemaParameter",
              "UId": "8b1fa4f7-0475-4d9f-8fba-fd3f0d9faf87",
              "A2": "RecordId",
              "A3": "73574c68-3234-4eef-8e97-3d407a368d5f",
              "A4": "73574c68-3234-4eef-8e97-3d407a368d5f",
              "IL2": "d2aae7d1-dde0-41b9-8cd3-ce98f4810efb",
              "L1": "23018567-a13c-4320-8687-fd6f9e3699bd",
              "L8": {
                "GS1": 1,
                "GS2": ""
              }
            }
          ],
          "FC2": "1e12dfee-851f-44c3-8782-fc765b9843d1",
          "ED1": false,
          "DZ1": "null",
          "DZ2": false,
          "DZ3": true,
          "DZ5": 1,
          "DZ12": "{\"$type\":\"System.Collections.ObjectModel.Collection`1[[System.String, mscorlib]], mscorlib\",\"$values\":[]}",
          "DZ13": "{\"className\":\"Terrasoft.FilterGroup\",\"serializedFilterEditData\":\"{\\\"className\\\":\\\"Terrasoft.FilterGroup\\\",\\\"items\\\":{},\\\"logicalOperation\\\":0,\\\"isEnabled\\\":true,\\\"filterType\\\":6,\\\"rootSchemaName\\\":\\\"AnwRealty\\\",\\\"key\\\":\\\"\\\"}\",\"dataSourceFilters\":\"{\\\"items\\\":{},\\\"logicalOperation\\\":0,\\\"isEnabled\\\":true,\\\"filterType\\\":6,\\\"rootSchemaName\\\":\\\"AnwRealty\\\"}\"}"
        },
        {
          "BL1": "Terrasoft.Core.Process.ProcessSchemaUserTask",
          "UId": "0cc92358-3ca0-483f-bf47-34648ab3608f",
          "A2": "AddDataUserTask1",
          "A3": "73574c68-3234-4eef-8e97-3d407a368d5f",
          "A4": "73574c68-3234-4eef-8e97-3d407a368d5f",
          "A5": "61ba2b63-4480-41d2-9dca-a5dc07183f3c",
          "IL2": "2f694e6b-1524-4d78-b073-d919c3b6837d",
          "BL3": "127;172",
          "BL7": "db6abed1-0c5f-455b-8053-2665378cdb71",
          "BL8": "73574c68-3234-4eef-8e97-3d407a368d5f",
          "BN2": "69;55",
          "BO2": true,
          "BO3": true,
          "BP2": [
            {
              "BL1": "Terrasoft.Core.Process.ProcessSchemaParameter",
              "UId": "b4e1946f-b627-49f6-8492-16dd95c6b1d5",
              "A2": "EntitySchemaId",
              "A3": "db6abed1-0c5f-455b-8053-2665378cdb71",
              "A4": "db6abed1-0c5f-455b-8053-2665378cdb71",
              "IL2": "0cc92358-3ca0-483f-bf47-34648ab3608f",
              "L1": "b295071f-7ea9-4e62-8d1a-919bf3732ff2",
              "L8": {
                "GS1": 1,
                "GS2": "db8cb312-27a2-4e22-9663-135d3fcf4bd0",
                "GS5": "73574c68-3234-4eef-8e97-3d407a368d5f"
              },
              "L9": "2e155463-3ff1-4ccf-8584-4ec8d7233111"
            },
            {
              "BL1": "Terrasoft.Core.Process.ProcessSchemaParameter",
              "UId": "88c8304c-b894-4a01-b980-8a5424956910",
              "A2": "DataSourceFilters",
              "A3": "db6abed1-0c5f-455b-8053-2665378cdb71",
              "A4": "db6abed1-0c5f-455b-8053-2665378cdb71",
              "IL2": "0cc92358-3ca0-483f-bf47-34648ab3608f",
              "L1": "394e160f-c8e0-46fa-9c0d-75d97e9e9169",
              "L8": {}
            },
            {
              "BL1": "Terrasoft.Core.Process.ProcessSchemaParameter",
              "UId": "5e7193c1-77b9-42c4-bdfe-bcaf021c5e42",
              "A2": "RecordAddMode",
              "A3": "db6abed1-0c5f-455b-8053-2665378cdb71",
              "A4": "db6abed1-0c5f-455b-8053-2665378cdb71",
              "IL2": "0cc92358-3ca0-483f-bf47-34648ab3608f",
              "L1": "394e160f-c8e0-46fa-9c0d-75d97e9e9169",
              "L8": {
                "GS1": 1,
                "GS2": "0",
                "GS5": "73574c68-3234-4eef-8e97-3d407a368d5f"
              }
            },
            {
              "BL1": "Terrasoft.Core.Process.ProcessSchemaParameter",
              "UId": "fc7f6c34-3e7a-412e-b832-381cde254add",
              "A2": "FilterEntitySchemaId",
              "A3": "db6abed1-0c5f-455b-8053-2665378cdb71",
              "A4": "db6abed1-0c5f-455b-8053-2665378cdb71",
              "IL2": "0cc92358-3ca0-483f-bf47-34648ab3608f",
              "L1": "b295071f-7ea9-4e62-8d1a-919bf3732ff2",
              "L8": {},
              "L9": "2e155463-3ff1-4ccf-8584-4ec8d7233111"
            },
            {
              "BL1": "Terrasoft.Core.Process.ProcessSchemaParameter",
              "UId": "5620ff37-6a34-4600-83ed-92f35f6f1b5a",
              "A2": "RecordDefValues",
              "A3": "db6abed1-0c5f-455b-8053-2665378cdb71",
              "A4": "db6abed1-0c5f-455b-8053-2665378cdb71",
              "IL2": "0cc92358-3ca0-483f-bf47-34648ab3608f",
              "L1": "b53eaa2a-4bb7-4a6b-9f4f-58ccab293e31",
              "L8": {
                "GS1": 1,
                "GS2": "{\"$type\":\"Terrasoft.Core.Process.LocalizableParameterValuesList, Terrasoft.Core\",\"$values\":[{\"ItemUId\":\"51212b3f-d68c-471a-866d-414c8fbae442\",\"columnMetaPath\":{\"value\":\"59c7d592-5d1f-cc3c-0133-3cde8f610713\"},\"schemaUId\":{\"value\":\"db8cb312-27a2-4e22-9663-135d3fcf4bd0\"},\"value\":{\"isLczValue\":true},\"displayValue\":{\"isLczValue\":true},\"parameterValue\":{\"value\":\"{\\\"$type\\\":\\\"Terrasoft.Core.Process.ProcessSchemaParameterValue, Terrasoft.Core\\\",\\\"Source\\\":1,\\\"DisplayValue\\\":\\\"\\\",\\\"Value\\\":\\\"\\\",\\\"MetaPath\\\":null,\\\"MetaDataValue\\\":null,\\\"ModifiedInSchemaUId\\\":\\\"00000000-0000-0000-0000-000000000000\\\",\\\"SchemaUId\\\":\\\"00000000-0000-0000-0000-000000000000\\\",\\\"SchemaManagerName\\\":\\\"\\\",\\\"DataValueTypeUId\\\":\\\"325a73b8-0f47-44a0-8412-7606f78003ac\\\",\\\"ReferenceSchemaUId\\\":\\\"00000000-0000-0000-0000-000000000000\\\",\\\"ResourceItemName\\\":null}\"}},{\"ItemUId\":\"981d9dd0-f913-48d1-aa91-8c9dfcd2efb6\",\"columnMetaPath\":{\"value\":\"a03e35d5-6e7f-b558-a870-a313695b9c0f\"},\"schemaUId\":{\"value\":\"db8cb312-27a2-4e22-9663-135d3fcf4bd0\"},\"value\":{\"value\":\"[#[IsOwnerSchema:false].[IsSchema:false].[Element:{d2aae7d1-dde0-41b9-8cd3-ce98f4810efb}].[Parameter:{8b1fa4f7-0475-4d9f-8fba-fd3f0d9faf87}]#]\"},\"displayValue\":{\"value\":\"[#Realty created.Unique identifier of record#]\"},\"parameterValue\":{\"value\":\"{\\\"$type\\\":\\\"Terrasoft.Core.Process.ProcessSchemaParameterValue, Terrasoft.Core\\\",\\\"Source\\\":3,\\\"DisplayValue\\\":\\\"\\\",\\\"Value\\\":\\\"\\\",\\\"MetaPath\\\":null,\\\"MetaDataValue\\\":null,\\\"ModifiedInSchemaUId\\\":\\\"00000000-0000-0000-0000-000000000000\\\",\\\"SchemaUId\\\":\\\"00000000-0000-0000-0000-000000000000\\\",\\\"SchemaManagerName\\\":\\\"\\\",\\\"DataValueTypeUId\\\":\\\"b295071f-7ea9-4e62-8d1a-919bf3732ff2\\\",\\\"ReferenceSchemaUId\\\":\\\"1e12dfee-851f-44c3-8782-fc765b9843d1\\\",\\\"ResourceItemName\\\":null}\"}},{\"ItemUId\":\"2c64d207-1974-4f00-a9b2-7df752646613\",\"columnMetaPath\":{\"value\":\"8d17f77c-d675-c85c-985d-0e0475cecb0e\"},\"schemaUId\":{\"value\":\"db8cb312-27a2-4e22-9663-135d3fcf4bd0\"},\"value\":{\"value\":\"[#SysVariable.CurrentDateTime#].AddDays([#[IsOwnerSchema:false].[IsSchema:false].[Parameter:{4243b3a9-bac4-4836-9924-e53b73f8553c}]#])\"},\"displayValue\":{\"value\":\"[#System variable.Current Time and Date#].AddDays([#N#])\"},\"parameterValue\":{\"value\":\"{\\\"$type\\\":\\\"Terrasoft.Core.Process.ProcessSchemaParameterValue, Terrasoft.Core\\\",\\\"Source\\\":3,\\\"DisplayValue\\\":\\\"\\\",\\\"Value\\\":\\\"\\\",\\\"MetaPath\\\":null,\\\"MetaDataValue\\\":null,\\\"ModifiedInSchemaUId\\\":\\\"00000000-0000-0000-0000-000000000000\\\",\\\"SchemaUId\\\":\\\"00000000-0000-0000-0000-000000000000\\\",\\\"SchemaManagerName\\\":\\\"\\\",\\\"DataValueTypeUId\\\":\\\"d21e9ef4-c064-4012-b286-fa1a8171da44\\\",\\\"ReferenceSchemaUId\\\":\\\"00000000-0000-0000-0000-000000000000\\\",\\\"ResourceItemName\\\":null}\"}}]}",
                "GS5": "73574c68-3234-4eef-8e97-3d407a368d5f"
              }
            },
            {
              "BL1": "Terrasoft.Core.Process.ProcessSchemaParameter",
              "UId": "a9ebce53-e564-48a3-9872-032f8325cdf1",
              "A2": "RecordId",
              "A3": "db6abed1-0c5f-455b-8053-2665378cdb71",
              "A4": "db6abed1-0c5f-455b-8053-2665378cdb71",
              "IL2": "0cc92358-3ca0-483f-bf47-34648ab3608f",
              "L1": "23018567-a13c-4320-8687-fd6f9e3699bd",
              "L8": {}
            },
            {
              "BL1": "Terrasoft.Core.Process.ProcessSchemaParameter",
              "UId": "e59f2a62-bae8-4ed6-8b4b-4e819a40d114",
              "A2": "ConsiderTimeInFilter",
              "A3": "db6abed1-0c5f-455b-8053-2665378cdb71",
              "A4": "db6abed1-0c5f-455b-8053-2665378cdb71",
              "IL2": "0cc92358-3ca0-483f-bf47-34648ab3608f",
              "L1": "90b65bf8-0ffc-4141-8779-2420877af907",
              "L8": {
                "GS1": 3,
                "GS2": "true",
                "GS5": "db6abed1-0c5f-455b-8053-2665378cdb71",
                "GS8": "false"
              }
            }
          ],
          "CL2": "FFFFFFFF",
          "J6": "db6abed1-0c5f-455b-8053-2665378cdb71"
        },
        {
          "BL1": "Terrasoft.Core.Process.ProcessSchemaFormulaTask",
          "UId": "e02524c7-252f-4065-84cd-455a8d1448cf",
          "A2": "FormulaTask1",
          "A3": "73574c68-3234-4eef-8e97-3d407a368d5f",
          "A4": "73574c68-3234-4eef-8e97-3d407a368d5f",
          "A5": "61ba2b63-4480-41d2-9dca-a5dc07183f3c",
          "IL2": "2f694e6b-1524-4d78-b073-d919c3b6837d",
          "BL3": "274;172",
          "BL7": "d334d28f-b11a-477e-9ff0-0a95fa73d53b",
          "BL8": "73574c68-3234-4eef-8e97-3d407a368d5f",
          "BN2": "69;55",
          "BO3": true,
          "BP2": [],
          "CL2": "FFFFFFFF",
          "CH1": "[#[IsOwnerSchema:false].[IsSchema:false].[Parameter:{4243b3a9-bac4-4836-9924-e53b73f8553c}]#] + 1",
          "HS1": "4243b3a9-bac4-4836-9924-e53b73f8553c"
        },
        {
          "BL1": "Terrasoft.Core.Process.ProcessSchemaSequenceFlow",
          "UId": "4bf3db18-99db-4311-bf27-a44163ea0643",
          "A2": "SequenceFlow1",
          "A3": "73574c68-3234-4eef-8e97-3d407a368d5f",
          "A4": "73574c68-3234-4eef-8e97-3d407a368d5f",
          "A5": "61ba2b63-4480-41d2-9dca-a5dc07183f3c",
          "BL7": "0d8351f6-c2f4-4737-bdd9-6fbfe0837fec",
          "BL8": "73574c68-3234-4eef-8e97-3d407a368d5f",
          "CI1": "d2aae7d1-dde0-41b9-8cd3-ce98f4810efb",
          "CI2": "0cc92358-3ca0-483f-bf47-34648ab3608f",
          "CI3": "null",
          "CI5": "FF939598",
          "CI6": 1,
          "CI11": "81;200",
          "CI12": "127;200"
        },
        {
          "BL1": "Terrasoft.Core.Process.ProcessSchemaSequenceFlow",
          "UId": "d5fca4b8-c5f5-45d3-89cd-70cb3d657771",
          "A2": "SequenceFlow2",
          "A3": "73574c68-3234-4eef-8e97-3d407a368d5f",
          "A4": "73574c68-3234-4eef-8e97-3d407a368d5f",
          "A5": "61ba2b63-4480-41d2-9dca-a5dc07183f3c",
          "BL7": "0d8351f6-c2f4-4737-bdd9-6fbfe0837fec",
          "BL8": "73574c68-3234-4eef-8e97-3d407a368d5f",
          "CI1": "0cc92358-3ca0-483f-bf47-34648ab3608f",
          "CI2": "e02524c7-252f-4065-84cd-455a8d1448cf",
          "CI3": "null",
          "CI5": "FF939598",
          "CI6": 1,
          "CI11": "196;200",
          "CI12": "274;200"
        },
        {
          "BL1": "Terrasoft.Core.Process.ProcessSchemaConditionalFlow",
          "UId": "fdb24683-09eb-4afa-8155-9a77c83e4e41",
          "A2": "ConditionalSequenceFlow1",
          "A3": "73574c68-3234-4eef-8e97-3d407a368d5f",
          "A4": "73574c68-3234-4eef-8e97-3d407a368d5f",
          "A5": "61ba2b63-4480-41d2-9dca-a5dc07183f3c",
          "BL7": "dac675d4-ea84-4e44-9056-38bf918618e9",
          "BL8": "73574c68-3234-4eef-8e97-3d407a368d5f",
          "CI1": "e02524c7-252f-4065-84cd-455a8d1448cf",
          "CI2": "0cc92358-3ca0-483f-bf47-34648ab3608f",
          "CI3": "[#[IsOwnerSchema:false].[IsSchema:false].[Parameter:{4243b3a9-bac4-4836-9924-e53b73f8553c}]#] < 5",
          "CI4": 2,
          "CI5": "FF939598",
          "CI6": 1,
          "CI7": "0;1",
          "CI8": "0;1",
          "CI10": {
            "Item0": "309;104",
            "Item1": "162;104"
          },
          "GV2": "{\"$type\":\"System.Collections.Generic.Dictionary`2[[System.Guid, mscorlib],[System.Collections.ObjectModel.Collection`1[[System.Guid, mscorlib]], mscorlib]], mscorlib\"}",
          "GV3": []
        },
        {
          "BL1": "Terrasoft.Core.Process.ProcessSchemaSequenceFlow",
          "UId": "9547241e-f55a-421b-add0-725dbc0c9f7d",
          "A2": "DefaultSequenceFlow1",
          "A3": "73574c68-3234-4eef-8e97-3d407a368d5f",
          "A4": "73574c68-3234-4eef-8e97-3d407a368d5f",
          "A5": "61ba2b63-4480-41d2-9dca-a5dc07183f3c",
          "BL7": "573ed909-e069-4161-b193-ae8dd9437c68",
          "BL8": "73574c68-3234-4eef-8e97-3d407a368d5f",
          "CI1": "e02524c7-252f-4065-84cd-455a8d1448cf",
          "CI2": "c68f23de-25f7-4f83-9767-80baa91b9496",
          "CI3": "null",
          "CI4": 1,
          "CI5": "FF939598",
          "CI6": 1
        }
      ],
      "BK9": [],
      "BK18": "Business Process",
      "BK29": true,
      "BK30": true,
      "BK34": "en-US",
      "Labels": [],
      "BK24": []
    }
  }
}