﻿{
  "Descriptor": {
    "UId": "3b5becda-b678-46fe-92c4-9794c1fd22fd",
    "Name": "UsrRealtyClassicInFolder",
    "ModifiedOnUtc": "\/Date(1703053010000)\/",
    "Parent": {
      "UId": "4f63bafb-e9e7-4082-b92e-66b97c14017c",
      "Name": "BaseItemInFolder"
    },
    "ManagerName": "EntitySchemaManager",
    "Caption": "Realty (ClassicUI) in Folder",
    "DependsOn": []
  }
}