﻿{
  "Descriptor": {
    "UId": "5f9a231a-e6d6-4d48-890d-3ad3e85cadc3",
    "Name": "UsrCalAvgPriceProcess",
    "ModifiedOnUtc": "\/Date(1703123707000)\/",
    "ManagerName": "ProcessSchemaManager",
    "Caption": "Calculate average realty price",
    "DependsOn": []
  }
}