{
	"PackageData": [
		{
			"Row": [
				{
					"SchemaColumnUId": "ae0e45ca-c495-4fe7-a39d-3ab7278e1617",
					"Value": "8622e7f5-5a15-4da4-ab58-648260450d1a"
				},
				{
					"SchemaColumnUId": "3107ef98-a02e-4ea8-809a-67dc3025ef4a",
					"Value": "null"
				},
				{
					"SchemaColumnUId": "0c59594b-490a-4b55-a564-5841cfae3c19",
					"Value": "267a89f1-5948-4158-9e92-322fa5997d39"
				}
			]
		}
	]
}
