﻿{
  "Descriptor": {
    "UId": "291a3fee-d396-4846-ba25-d80324b7a082",
    "Name": "UsrRealtyVisitFreedomUI",
    "ModifiedOnUtc": "\/Date(1702978556000)\/",
    "Parent": {
      "UId": "1bab9dcf-17d5-49f8-9536-8e0064f1dce0",
      "Name": "BaseEntity"
    },
    "ManagerName": "EntitySchemaManager",
    "Caption": "Realty visit (FreedomUI)",
    "DependsOn": []
  }
}